[
   {
     "region_cut":"01",
     "region_name":"Tarapacá",
     "province_cut":"011",
     "province_name":"Iquique"
  },
   {
     "region_cut":"01",
     "region_name":"Tarapacá",
     "province_cut":"014",
     "province_name":"Tamarugal"
  },
   {
     "region_cut":"02",
     "region_name":"Antofagasta",
     "province_cut":"021",
     "province_name":"Antofagasta"
  },
   {
     "region_cut":"02",
     "region_name":"Antofagasta",
     "province_cut":"022",
     "province_name":"El Loa"
  },
   {
     "region_cut":"02",
     "region_name":"Antofagasta",
     "province_cut":"023",
     "province_name":"Tocopilla"
  },
   {
     "region_cut":"03",
     "region_name":"Atacama",
     "province_cut":"031",
     "province_name":"Copiapó"
  },
   {
     "region_cut":"03",
     "region_name":"Atacama",
     "province_cut":"032",
     "province_name":"Chañaral"
  },
   {
     "region_cut":"03",
     "region_name":"Atacama",
     "province_cut":"033",
     "province_name":"Huasco"
  },
   {
     "region_cut":"04",
     "region_name":"Coquimbo",
     "province_cut":"041",
     "province_name":"Elqui"
  },
   {
     "region_cut":"04",
     "region_name":"Coquimbo",
     "province_cut":"042",
     "province_name":"Choapa"
  },
   {
     "region_cut":"04",
     "region_name":"Coquimbo",
     "province_cut":"043",
     "province_name":"Limarí"
  },
   {
     "region_cut":"05",
     "region_name":"Valparaíso",
     "province_cut":"051",
     "province_name":"Valparaíso"
  },
   {
     "region_cut":"05",
     "region_name":"Valparaíso",
     "province_cut":"052",
     "province_name":"Isla de Pascua"
  },
   {
     "region_cut":"05",
     "region_name":"Valparaíso",
     "province_cut":"053",
     "province_name":"Los Andes"
  },
   {
     "region_cut":"05",
     "region_name":"Valparaíso",
     "province_cut":"054",
     "province_name":"Petorca"
  },
   {
     "region_cut":"05",
     "region_name":"Valparaíso",
     "province_cut":"055",
     "province_name":"Quillota"
  },
   {
     "region_cut":"05",
     "region_name":"Valparaíso",
     "province_cut":"056",
     "province_name":"San Antonio"
  },
   {
     "region_cut":"05",
     "region_name":"Valparaíso",
     "province_cut":"057",
     "province_name":"San Felipe de Aconcagua"
  },
   {
     "region_cut":"05",
     "region_name":"Valparaíso",
     "province_cut":"058",
     "province_name":"Marga Marga"
  },
   {
     "region_cut":"06",
     "region_name":"Libertador General Bernardo O'Higgins",
     "province_cut":"061",
     "province_name":"Cachapoal"
  },
   {
     "region_cut":"06",
     "region_name":"Libertador General Bernardo O'Higgins",
     "province_cut":"062",
     "province_name":"Cardenal Caro"
  },
   {
     "region_cut":"06",
     "region_name":"Libertador General Bernardo O'Higgins",
     "province_cut":"063",
     "province_name":"Colchagua"
  },
   {
     "region_cut":"07",
     "region_name":"Maule",
     "province_cut":"071",
     "province_name":"Talca"
  },
   {
     "region_cut":"07",
     "region_name":"Maule",
     "province_cut":"072",
     "province_name":"Cauquenes"
  },
   {
     "region_cut":"07",
     "region_name":"Maule",
     "province_cut":"073",
     "province_name":"Curicó"
  },
   {
     "region_cut":"07",
     "region_name":"Maule",
     "province_cut":"074",
     "province_name":"Linares"
  },
   {
     "region_cut":"08",
     "region_name":"Biobío",
     "province_cut":"081",
     "province_name":"Concepción"
  },
   {
     "region_cut":"08",
     "region_name":"Biobío",
     "province_cut":"082",
     "province_name":"Arauco"
  },
   {
     "region_cut":"08",
     "region_name":"Biobío",
     "province_cut":"083",
     "province_name":"Biobío"
  },
   {
     "region_cut":"09",
     "region_name":"La Araucanía",
     "province_cut":"091",
     "province_name":"Cautín"
  },
   {
     "region_cut":"09",
     "region_name":"La Araucanía",
     "province_cut":"092",
     "province_name":"Malleco"
  },
   {
     "region_cut":"10",
     "region_name":"Los Lagos",
     "province_cut":"101",
     "province_name":"Llanquihue"
  },
   {
     "region_cut":"10",
     "region_name":"Los Lagos",
     "province_cut":"102",
     "province_name":"Chiloé"
  },
   {
     "region_cut":"10",
     "region_name":"Los Lagos",
     "province_cut":"103",
     "province_name":"Osorno"
  },
   {
     "region_cut":"10",
     "region_name":"Los Lagos",
     "province_cut":"104",
     "province_name":"Palena"
  },
   {
     "region_cut":"11",
     "region_name":"Aysén del General Carlos Ibáñez del Campo",
     "province_cut":"111",
     "province_name":"Coihaique"
  },
   {
     "region_cut":"11",
     "region_name":"Aysén del General Carlos Ibáñez del Campo",
     "province_cut":"112",
     "province_name":"Aisén"
  },
   {
     "region_cut":"11",
     "region_name":"Aysén del General Carlos Ibáñez del Campo",
     "province_cut":"113",
     "province_name":"Capitán Prat"
  },
   {
     "region_cut":"11",
     "region_name":"Aysén del General Carlos Ibáñez del Campo",
     "province_cut":"114",
     "province_name":"General Carrera"
  },
   {
     "region_cut":"12",
     "region_name":"Magallanes y de la Antártica Chilena",
     "province_cut":"121",
     "province_name":"Magallanes"
  },
   {
     "region_cut":"12",
     "region_name":"Magallanes y de la Antártica Chilena",
     "province_cut":"122",
     "province_name":"Antártica Chilena"
  },
   {
     "region_cut":"12",
     "region_name":"Magallanes y de la Antártica Chilena",
     "province_cut":"123",
     "province_name":"Tierra del Fuego"
  },
   {
     "region_cut":"12",
     "region_name":"Magallanes y de la Antártica Chilena",
     "province_cut":"124",
     "province_name":"Última Esperanza"
  },
   {
     "region_cut":"13",
     "region_name":"Metropolitana de Santiago",
     "province_cut":"131",
     "province_name":"Santiago"
  },
   {
     "region_cut":"13",
     "region_name":"Metropolitana de Santiago",
     "province_cut":"132",
     "province_name":"Cordillera"
  },
   {
     "region_cut":"13",
     "region_name":"Metropolitana de Santiago",
     "province_cut":"133",
     "province_name":"Chacabuco"
  },
   {
     "region_cut":"13",
     "region_name":"Metropolitana de Santiago",
     "province_cut":"134",
     "province_name":"Maipo"
  },
   {
     "region_cut":"13",
     "region_name":"Metropolitana de Santiago",
     "province_cut":"135",
     "province_name":"Melipilla"
  },
   {
     "region_cut":"13",
     "region_name":"Metropolitana de Santiago",
     "province_cut":"136",
     "province_name":"Talagante"
  },
   {
     "region_cut":"14",
     "region_name":"Los Ríos",
     "province_cut":"141",
     "province_name":"Valdivia"
  },
   {
     "region_cut":"14",
     "region_name":"Los Ríos",
     "province_cut":"142",
     "province_name":"Ranco"
  },
   {
     "region_cut":"15",
     "region_name":"Arica y Parinacota",
     "province_cut":"151",
     "province_name":"Arica"
  },
   {
     "region_cut":"15",
     "region_name":"Arica y Parinacota",
     "province_cut":"152",
     "province_name":"Parinacota"
  },
   {
     "region_cut":"16",
     "region_name":"Ñuble",
     "province_cut":"161",
     "province_name":"Diguillín"
  },
   {
     "region_cut":"16",
     "region_name":"Ñuble",
     "province_cut":"162",
     "province_name":"Itata"
  },
   {
     "region_cut":"16",
     "region_name":"Ñuble",
     "province_cut":"163",
     "province_name":"Punilla"
  }
]